%YAML 1.1
%TAG !u! tag:unity3d.com,2011:
--- !u!114 &11400000
MonoBehaviour:
  m_ObjectHideFlags: 0
  m_CorrespondingSourceObject: {fileID: 0}
  m_PrefabInstance: {fileID: 0}
  m_PrefabAsset: {fileID: 0}
  m_GameObject: {fileID: 0}
  m_Enabled: 1
  m_EditorHideFlags: 0
  m_Script: {fileID: 11500000, guid: 564496dde18284149be9115d02941b00, type: 3}
  m_Name: SwitchableElementSon
  m_EditorClassIdentifier: 
  colorImages:
  - {fileID: 21300000, guid: 6dacedd3b5c64e04ea0eefafae9874c8, type: 3}
  - {fileID: 21300000, guid: 94bb2bfa60f63484d95e383c1f13ed4b, type: 3}
  - {fileID: 21300000, guid: f5e6ea15596ee0c4b9ec06e7345b2cdc, type: 3}
  - {fileID: 21300000, guid: 3ec0ba6bd040f0b4193daafcdc4a3a32, type: 3}
  bwImages:
  - {fileID: 21300000, guid: c2a856c3b82dc964daf6b155eb7a60ac, type: 3}
  - {fileID: 21300000, guid: a228925b04c1b504dbdf9c0dc45098fe, type: 3}
  - {fileID: 21300000, guid: 44baf556b4a3ac749b9818d4224f0bcd, type: 3}
  - {fileID: 21300000, guid: 34f6f120e239fb347a22978a6a7a4cba, type: 3}
